MYaseen208 | Bioinformatics with R – MYaseen208
…
Continuous Data

Example

The following data is the final plant height (cm) of thirty plants of wheat. 87 91 89 88 89 91 87 92 90 98 95 97 96 100 101 96 98 99 98 100 102 99 101 105 103 107 105 106 107 112

df8 <- tibble::tibble(
  PlantHeight = c(
  87,   91, 89, 88, 89, 91, 87, 92, 90, 98, 95, 97, 96, 100,    101,
  96,   98, 99, 98, 100,    102,    99, 101,    105,    103,    107,    105,    106,    107,    112
  )
)
df8

# A tibble: 30 × 1
   PlantHeight
         <dbl>
 1          87
 2          91
 3          89
 4          88
 5          89
 6          91
 7          87
 8          92
 9          90
10          98
# ℹ 20 more rows
…
df10

# A tibble: 38 × 2
   genevalue tumortype
       <dbl> <chr>    
 1      2.11 ALL      
 2      1.52 ALL      
 3      1.96 ALL      
 4      2.34 ALL      
 5      1.85 ALL      
 6      1.99 ALL      
 7      2.07 ALL      
 8      1.82 ALL      
 9      2.18 ALL      
10      1.81 ALL      
# ℹ 28 more rows
…
